Пн
8:00, 9:30, Высшая математика, практ.
9:40, 11:10, Общая физика, лекция
11:20, 12:50, Общая физика, лекция
13:30, 15:00, Теоретическая механика, лекция
Вт
9:40, 11:10, История науки, практика
11:20, 12:50, Общая физика, практика
13:30, 15:00, Введение в профессию, практ.
Ср
11:20, 12:50, Введение в профессию, лекция
15:10, 16:40, Теория эфира, видеолекция
16:50, 18:20, История, видеолекция
Чт
9:40, 12:50, Квантовая физика, практика
Пт
9:40, 11:10, Теоретическая механика, практ.
11:20, 12:50, Теория струн, лекция
13:30, 15:00, Теоретическая механика, лекция
15:10, 16:40, Теоретическая механика, лекция
Сб
9:40, 11:10, Немецкий, видеолекция
11:20, 12:50, Французский, видеолекция
